2	107.9211
3	106.7828
4	101.9931
5	86.3711
6	77.4176
7	70.6584
8	63.0596
9	58.7189
10	54.4036
11	50.3138
12	46.8856
13	42.9886
14	39.8328
15	37.3705
16	35.6609
17	33.6864
18	31.8143
19	30.7380
20	29.8003
21	29.4216
22	29.3471
23	29.1669
24	29.0918
25	29.0975
